snp_id	pre_miRNA	on_premiR	allele	chr	snp_pos	acc	strand	start	end	miRNA	on_miRNA	seed
rs209275682	bta-mir-2284z-1	79	NA	chr10	9091982	MI0022320	-	9092060	9091982	Null	0	Null
rs209629713	bta-mir-2292	48	NA	chr10	67304464	MI0011302	+	67304417	67304486	bta-miR-2292	6	In_seed
rs209915053	bta-mir-2293	47	NA	chr10	97457637	MI0011303	-	97457683	97457612	Null	0	Null
rs110077111	bta-mir-2284z-2	76	NA	chr11	21374969	MI0022351	-	21375044	21374968	Null	0	Null
rs133750997	bta-mir-2284aa-1	85	NA	chr11	89357285	MI0022321	-	89357369	89357282	Null	0	Null
rs134383287	bta-mir-199b	97	NA	chr11	98867660	MI0005036	-	98867756	98867657	Null	0	Null
rs43430325	bta-mir-2284s	41	NA	chr12	53250995	MI0011312	+	53250955	53251022	Null	0	Null
rs43702263	bta-mir-19a	9	NA	chr12	66226844	MI0005460	+	66226836	66226917	Null	0	Null
rs210808755	bta-mir-92a-1	70	NA	chr12	66227324	MI0009905	+	66227255	66227332	Null	0	Null
rs43757322	bta-mir-3141	46	NA	chr12	73398833	MI0021117	-	73398878	73398779	Null	0	Null
rs43757321	bta-mir-3141	26	NA	chr12	73398853	MI0021117	-	73398878	73398779	Null	0	Null
rs110192841	bta-mir-2892	102	NA	chr12	81323150	MI0013067	-	81323251	81323148	Null	0	Null
rs110100394	bta-mir-2892	77	NA	chr12	81323175	MI0013067	-	81323251	81323148	Null	0	Null
rs109521539	bta-mir-2892	69	NA	chr12	81323183	MI0013067	-	81323251	81323148	Null	0	Null
rs137794445	bta-mir-2892	43	NA	chr12	81323209	MI0013067	-	81323251	81323148	Null	0	Null
rs133294664	bta-mir-2892	41	NA	chr12	81323211	MI0013067	-	81323251	81323148	Null	0	Null
rs109795153	bta-mir-2892	9	NA	chr12	81323243	MI0013067	-	81323251	81323148	bta-miR-2892	7	In_seed
rs208794164	bta-mir-2301	5	NA	chr12	86809631	MI0011313	+	86809627	86809687	Null	0	Null
rs135483577	bta-mir-2305	18	NA	chr13	39836890	MI0011318	+	39836873	39836938	bta-miR-2305	15	In_m
rs41686132	bta-mir-2305	53	NA	chr13	39836925	MI0011318	+	39836873	39836938	Null	0	Null
rs135878508	bta-mir-2285m-2	9	NA	chr13	47087732	MI0022276	-	47087740	47087660	Null	0	Null
rs110672364	bta-mir-6527	7	NA	chr13	79549829	MI0022323	-	79549835	79549741	Null	0	Null
rs210217220	bta-mir-1839	46	NA	chr14	1883872	MI0010473	-	1883917	1883846	Null	0	Null
rs208524348	bta-mir-1839	30	NA	chr14	1883888	MI0010473	-	1883917	1883846	bta-miR-1839	24	In_m
rs110544069	bta-mir-2489	18	NA	chr14	48094694	MI0011326	+	48094677	48094754	bta-miR-2489	7	In_seed
rs109834057	bta-mir-2489	19	NA	chr14	48094695	MI0011326	+	48094677	48094754	bta-miR-2489	8	In_seed
rs136326300	bta-mir-2489	77	NA	chr14	48094753	MI0011326	+	48094677	48094754	Null	0	Null
rs133713823	bta-mir-1260b	29	NA	chr15	14157003	MI0021113	-	14157031	14156932	bta-miR-1260b	9	In_m
rs134960452	bta-mir-1260b	26	NA	chr15	14157006	MI0021113	-	14157031	14156932	bta-miR-1260b	6	In_seed
rs136690815	bta-mir-1260b	18	NA	chr15	14157014	MI0021113	-	14157031	14156932	Null	0	Null
rs134279894	bta-mir-1260b	17	NA	chr15	14157015	MI0021113	-	14157031	14156932	Null	0	Null
rs208947946	bta-mir-378b	58	NA	chr15	30727354	MI0022279	+	30727297	30727394	Null	0	Null
rs41761413	bta-mir-2313	57	NA	chr15	34628957	MI0011330	+	34628901	34628974	bta-miR-2313-3p	8	In_seed
rs41762667	bta-mir-6518	13	NA	chr15	42911508	MI0022280	+	42911496	42911583	Null	0	Null
rs41765809	bta-mir-2284d	64	NA	chr15	43545917	MI0011335	-	43545980	43545903	Null	0	Null
rs41765810	bta-mir-2284d	45	NA	chr15	43545936	MI0011335	-	43545980	43545903	Null	0	Null
rs41765811	bta-mir-2284d	8	NA	chr15	43545973	MI0011335	-	43545980	43545903	Null	0	Null
rs134638324	bta-mir-2318	21	NA	chr15	78356674	MI0011339	+	78356654	78356732	bta-miR-2318	8	In_seed
rs208056251	bta-mir-6519	68	NA	chr15	84707306	MI0022281	-	84707373	84707281	bta-miR-6519	5	In_seed
rs209678865	bta-mir-6519	47	NA	chr15	84707327	MI0022281	-	84707373	84707281	Null	0	Null
rs136014887	bta-mir-551a	61	NA	chr16	50741153	MI0009863	+	50741093	50741187	bta-miR-551a	2	In_seed
rs41825418	bta-mir-29e	57	NA	chr16	77562055	MI0010454	+	77561999	77562079	bta-miR-29e	6	In_seed
rs137831203	bta-mir-29d	72	NA	chr16	77562609	MI0009788	+	77562538	77562625	bta-miR-29d	19	In_m
rs136581595	bta-mir-2284n	53	NA	chr16	78343055	MI0011343	-	78343107	78343038	Null	0	Null
rs134196820	bta-mir-2284n	1	NA	chr16	78343107	MI0011343	-	78343107	78343038	Null	0	Null
rs208678176	bta-mir-2321	2	NA	chr17	42970699	MI0011345	+	42970698	42970763	bta-miR-2321	1	In_m
rs210769840	bta-mir-2321	19	NA	chr17	42970716	MI0011345	+	42970698	42970763	bta-miR-2321	18	In_m
rs137731966	bta-mir-2321	21	NA	chr17	42970718	MI0011345	+	42970698	42970763	bta-miR-2321	20	In_m
rs207582330	bta-mir-2321	34	NA	chr17	42970731	MI0011345	+	42970698	42970763	Null	0	Null
rs41855342	bta-mir-6521	50	NA	chr17	66961929	MI0022283	-	66961978	66961891	Null	0	Null
rs133535909	bta-mir-2324	68	NA	chr18	1620741	MI0011349	-	1620808	1620738	Null	0	Null
rs134817229	bta-mir-2324	66	NA	chr18	1620743	MI0011349	-	1620808	1620738	bta-miR-2324	23	In_m
rs207829955	bta-mir-2883	48	NA	chr18	8166103	MI0013056	+	8166056	8166120	bta-miR-2883	6	In_seed
rs208923471	bta-mir-2327	70	NA	chr18	14003632	MI0011352	+	14003563	14003632	Null	0	Null
rs211359618	bta-mir-2328	13	NA	chr18	39351769	MI0011353	+	39351757	39351834	bta-miR-2328-5p	4	In_seed
rs109462250	bta-mir-2899	42	NA	chr18	42198087	MI0013074	+	42198046	42198113	bta-miR-2899	3	In_seed
rs41885631	bta-mir-2329-1	31	NA	chr18	48594055	MI0011354	-	48594085	48594020	Null	0	Null
rs41885631	bta-mir-2329-2	36	NA	chr18	48594055	MI0011355	+	48594020	48594085	Null	0	Null
rs210343727	bta-mir-769	21	NA	chr18	53945896	MI0009898	+	53945876	53945994	Null	0	Null
rs137548661	bta-mir-292	44	NA	chr18	61145879	MI0009815	-	61145922	61145844	Null	0	Null
rs132899399	bta-mir-574	65	NA	chr18	63074633	MI0021122	-	63074697	63074631	Null	0	Null
rs137603330	bta-mir-2900	44	NA	chr18	64276834	MI0013075	-	64276877	64276824	bta-miR-2900	12	In_m
rs110217469	bta-mir-193a	7	NA	chr19	18824295	MI0005014	-	18824301	18824221	Null	0	Null
rs207904456	bta-mir-144	42	NA	chr19	20797064	MI0009744	-	20797105	20797022	Null	0	Null
rs210782551	bta-mir-2336	39	NA	chr19	22824673	MI0011362	+	22824635	22824710	Null	0	Null
rs208992339	bta-mir-2336	47	NA	chr19	22824681	MI0011362	+	22824635	22824710	bta-miR-2336	1	In_m
rs133988074	bta-mir-132	59	NA	chr19	23651182	MI0005028	-	23651240	23651140	bta-miR-132	1	In_m
rs137311576	bta-mir-195	68	NA	chr19	27441362	MI0005459	-	27441429	27441343	Null	0	Null
rs135646700	bta-mir-195	66	NA	chr19	27441364	MI0005459	-	27441429	27441343	Null	0	Null
rs136746452	bta-mir-497	72	NA	chr19	27441692	MI0005467	-	27441763	27441652	Null	0	Null
rs110339121	bta-mir-152	6	NA	chr19	39081170	MI0009748	+	39081165	39081250	Null	0	Null
rs211455605	bta-mir-2344	3	NA	chr19	50423964	MI0011372	-	50423966	50423906	Null	0	Null
rs133207384	bta-mir-338	55	NA	chr19	52189683	MI0009805	+	52189629	52189720	bta-miR-338	1	In_m
rs208978033	bta-mir-2284i	41	NA	chr1	3580250	MI0011294	+	3580210	3580286	Null	0	Null
rs208471939	bta-mir-2284x	75	NA	chr1	3607768	MI0014499	-	3607842	3607747	Null	0	Null
rs135512047	bta-mir-2286	63	NA	chr1	52194917	MI0011295	-	52194979	52194906	bta-miR-2286	18	In_m
rs132885360	bta-mir-2286	61	NA	chr1	52194919	MI0011295	-	52194979	52194906	bta-miR-2286	16	In_m
rs133578645	bta-mir-2287	5	NA	chr1	73567022	MI0011296	-	73567026	73566953	Null	0	Null
rs110745851	bta-mir-2284y-3	58	NA	chr1	83105418	MI0022286	-	83105475	83105400	Null	0	Null
rs110480827	bta-mir-2284y-3	54	NA	chr1	83105422	MI0022286	-	83105475	83105400	Null	0	Null
rs207668477	bta-mir-2284y-3	22	NA	chr1	83105454	MI0022286	-	83105475	83105400	Null	0	Null
rs132996997	bta-mir-551b	90	NA	chr1	99671701	MI0009864	-	99671790	99671696	Null	0	Null
rs135711811	bta-mir-551b	8	NA	chr1	99671783	MI0009864	-	99671790	99671696	Null	0	Null
rs210079592	bta-mir-1246	15	NA	chr1	116822083	MI0021112	+	116822069	116822141	bta-miR-1246	5	In_seed
rs133418730	bta-mir-2285e-1	28	NA	chr1	158102103	MI0021126	+	158102076	158102139	Null	0	Null
rs136759257	bta-mir-218-2	60	NA	chr20	444321	MI0005017	-	444380	444319	Null	0	Null
rs208185611	bta-mir-584-6	34	NA	chr20	6239960	MI0009872	-	6239993	6239918	Null	0	Null
rs136389052	bta-mir-449b	55	NA	chr20	23967323	MI0009835	+	23967269	23967366	Null	0	Null
rs110697855	bta-mir-2362	10	NA	chr21	5654862	MI0011392	-	5654871	5654805	Null	0	Null
rs41974457	bta-mir-1179	84	NA	chr21	19985045	MI0010459	+	19984962	19985051	Null	0	Null
rs41974473	bta-mir-7-1	18	NA	chr21	19989081	MI0010471	+	19989064	19989161	Null	0	Null
rs41974474	bta-mir-7-1	88	NA	chr21	19989151	MI0010471	+	19989064	19989161	Null	0	Null
rs109316517	bta-mir-2364	53	NA	chr21	22859957	MI0011395	+	22859905	22859978	Null	0	Null
rs207805734	bta-mir-6522	1	NA	chr21	43809620	MI0022287	+	43809620	43809693	Null	0	Null
rs110255072	bta-mir-2284a	48	NA	chr21	61304058	MI0011399	+	61304011	61304084	Null	0	Null
rs210381252	bta-mir-380	15	NA	chr21	67564817	MI0005021	+	67564803	67564863	bta-miR-380-5p	11	In_m
rs132740734	bta-mir-411c	29	NA	chr21	67589506	MI0022292	+	67589478	67589551	bta-miR-411c-5p	19	In_m
rs208922296	bta-mir-453	21	NA	chr21	67594706	MI0009839	+	67594686	67594765	Null	0	Null
rs133674424	bta-mir-496	7	NA	chr21	67598875	MI0009850	+	67598869	67598969	Null	0	Null
rs111009111	bta-mir-1247	40	NA	chr21	68149473	MI0022295	-	68149512	68149435	Null	0	Null
rs41990658	bta-mir-1814b	39	NA	chr22	5004940	MI0011401	+	5004902	5004979	Null	0	Null
rs137709640	bta-mir-26a-1	39	NA	chr22	11457938	MI0009784	+	11457900	11457989	Null	0	Null
rs137709640	bta-mir-26c	52	NA	chr22	11457938	MI0015949	-	11457989	11457900	Null	0	Null
rs135405976	bta-mir-2369	52	NA	chr22	40172551	MI0011404	-	40172602	40172533	bta-miR-2369	11	In_m
rs136780194	bta-mir-2369	48	NA	chr22	40172555	MI0011404	-	40172602	40172533	bta-miR-2369	7	In_seed
rs134753593	bta-mir-2369	43	NA	chr22	40172560	MI0011404	-	40172602	40172533	bta-miR-2369	2	In_seed
rs135082893	bta-mir-2369	17	NA	chr22	40172586	MI0011404	-	40172602	40172533	Null	0	Null
rs133066290	bta-mir-2371	66	NA	chr22	45084598	MI0011406	+	45084533	45084604	Null	0	Null
rs209337344	bta-mir-2375	7	NA	chr23	3198189	MI0011410	+	3198183	3198256	Null	0	Null
rs109082455	bta-mir-2285j-2	37	NA	chr23	3208879	MI0021134	-	3208915	3208831	Null	0	Null
rs210246478	bta-mir-2377	19	NA	chr23	13082483	MI0011412	-	13082501	13082433	Null	0	Null
rs209543615	bta-mir-6531	73	NA	chr23	31589168	MI0022331	-	31589240	31589157	Null	0	Null
rs109094057	bta-mir-2285m-3	12	NA	chr24	23897928	MI0022298	-	23897939	23897857	Null	0	Null
rs43771654	bta-mir-2380	24	NA	chr24	31054832	MI0011417	+	31054809	31054880	Null	0	Null
rs133122073	bta-mir-378c	5	NA	chr24	31729613	MI0022299	-	31729617	31729549	Null	0	Null
rs137070651	bta-mir-133a-2	57	NA	chr24	34844471	MI0009732	+	34844415	34844501	bta-miR-133a	6	In_seed
rs110936400	bta-mir-940	78	NA	chr25	1792942	MI0009909	+	1792865	1792957	bta-miR-940	19	In_m
rs208131360	bta-mir-2388	53	NA	chr25	35300154	MI0011428	-	35300206	35300128	bta-miR-2388-3p	4	In_seed
rs43722771	bta-mir-2388	39	NA	chr25	35300168	MI0011428	-	35300206	35300128	Null	0	Null
rs135624456	bta-mir-2895	69	NA	chr26	12010598	MI0013070	+	12010530	12010615	Null	0	Null
rs109379057	bta-mir-2398	60	NA	chr27	18417522	MI0011439	-	18417581	18417503	Null	0	Null
rs137803906	bta-mir-2402	45	NA	chr28	7879987	MI0011444	+	7879943	7880010	bta-miR-2402	3	In_seed
rs135523674	bta-mir-2403	48	NA	chr28	15505100	MI0011445	+	15505053	15505127	bta-miR-2403	4	In_seed
rs132748696	bta-mir-2403	73	NA	chr28	15505125	MI0011445	+	15505053	15505127	Null	0	Null
rs133825806	bta-mir-6533	23	NA	chr28	24904020	MI0022334	-	24904042	24903966	Null	0	Null
rs135786138	bta-mir-584-3	33	NA	chr28	30855883	MI0009869	+	30855851	30855935	Null	0	Null
rs109007150	bta-mir-584-7	66	NA	chr29	37319065	MI0009873	+	37319000	37319066	Null	0	Null
rs137060297	bta-mir-2408	32	NA	chr29	45520815	MI0011451	-	45520846	45520786	Null	0	Null
rs209869434	bta-mir-10b	52	NA	chr2	20797653	MI0005052	-	20797704	20797606	Null	0	Null
rs208089737	bta-mir-10b	5	NA	chr2	20797700	MI0005052	-	20797704	20797606	Null	0	Null
rs133245493	bta-mir-2353	73	NA	chr2	27629815	MI0011382	-	27629887	27629813	Null	0	Null
rs137302567	bta-mir-2353	72	NA	chr2	27629816	MI0011382	-	27629887	27629813	Null	0	Null
rs210068699	bta-mir-2353	46	NA	chr2	27629842	MI0011382	-	27629887	27629813	bta-miR-2353	1	In_m
rs207646370	bta-mir-2353	37	NA	chr2	27629851	MI0011382	-	27629887	27629813	Null	0	Null
rs109934880	bta-mir-2355	31	NA	chr2	95834599	MI0011384	-	95834629	95834550	Null	0	Null
rs110782690	bta-mir-2355	6	NA	chr2	95834624	MI0011384	-	95834629	95834550	Null	0	Null
rs134683062	bta-mir-375	61	NA	chr2	107667524	MI0009817	-	107667584	107667521	bta-miR-375	23	In_m
rs209577006	bta-mir-2284u	27	NA	chr2	130903878	MI0011387	+	130903852	130903927	Null	0	Null
rs110121441	bta-mir-1584	66	NA	chr3	9881823	MI0011454	+	9881758	9881830	bta-miR-1584-3p	22	In_m
rs109464534	bta-mir-2412	76	NA	chr3	18845839	MI0011457	-	18845914	18845837	Null	0	Null
rs210698300	bta-mir-2415	23	NA	chr3	102923794	MI0011461	+	102923772	102923838	Null	0	Null
rs210132888	bta-mir-653	28	NA	chr4	10653589	MI0009880	-	10653616	10653527	bta-miR-653	17	In_m
rs110555814	bta-mir-2418	29	NA	chr4	49304499	MI0011464	-	49304527	49304452	bta-miR-2418	21	In_m
rs109241061	bta-mir-2417	66	NA	chr4	50323254	MI0011463	-	50323319	50323245	Null	0	Null
rs109043630	bta-mir-2417	54	NA	chr4	50323266	MI0011463	-	50323319	50323245	Null	0	Null
rs110656452	bta-mir-2417	39	NA	chr4	50323281	MI0011463	-	50323319	50323245	Null	0	Null
rs43400521	bta-mir-2419	61	NA	chr4	66346486	MI0011467	-	66346546	66346471	bta-miR-2419-3p	13	In_m
rs209160278	bta-mir-148a	32	NA	chr4	70414282	MI0004737	+	70414251	70414318	Null	0	Null
rs208997201	bta-mir-2421	30	NA	chr4	79148498	MI0011469	-	79148527	79148450	bta-miR-2421	15	In_m
rs43416688	bta-mir-320b	12	NA	chr4	96417250	MI0011472	-	96417261	96417190	Null	0	Null
rs135192547	bta-mir-615	16	NA	chr5	26157956	MI0009877	-	26157971	26157879	Null	0	Null
rs134756375	bta-mir-2425	54	NA	chr5	30251690	MI0011475	+	30251637	30251717	bta-miR-2425-3p	4	In_seed
rs110817643	bta-mir-1291	6	NA	chr5	31283924	MI0010458	+	31283919	31283992	bta-miR-1291	6	In_seed
rs109790808	bta-mir-2430	70	NA	chr5	56293174	MI0011480	-	56293243	56293171	Null	0	Null
rs208279052	bta-mir-2431	42	NA	chr5	56655726	MI0011481	-	56655767	56655700	Null	0	Null
rs109256956	bta-mir-2431	38	NA	chr5	56655730	MI0011481	-	56655767	56655700	Null	0	Null
rs135821414	bta-mir-2436	59	NA	chr5	84244516	MI0011487	-	84244574	84244500	bta-miR-2436-3p	12	In_m
rs133754575	bta-mir-2436	46	NA	chr5	84244529	MI0011487	-	84244574	84244500	Null	0	Null
rs137522635	bta-mir-2436	40	NA	chr5	84244535	MI0011487	-	84244574	84244500	Null	0	Null
rs41611295	bta-mir-2284z-6	56	NA	chr5	91263081	MI0022339	-	91263136	91263057	Null	0	Null
rs109856770	bta-mir-2285m-4	55	NA	chr5	111012132	MI0022306	+	111012078	111012159	Null	0	Null
rs136510713	bta-mir-2439	73	NA	chr5	112366955	MI0011492	-	112367027	112366950	Null	0	Null
rs208456533	bta-mir-2441	11	NA	chr5	112896840	MI0011494	+	112896830	112896899	Null	0	Null
rs135421562	bta-let-7b	37	NA	chr5	117120221	MI0005453	+	117120185	117120265	Null	0	Null
rs135421562	bta-mir-3596	50	NA	chr5	117120221	MI0015952	-	117120270	117120188	Null	0	Null
rs208041699	bta-mir-2446	24	NA	chr6	99976591	MI0011500	-	99976614	99976544	bta-miR-2446	19	In_m
rs210717208	bta-mir-2450c	63	NA	chr6	107741107	MI0011504	-	107741169	107741098	bta-miR-2450c	18	In_m
rs42658514	bta-mir-2450c	48	NA	chr6	107741122	MI0011504	-	107741169	107741098	bta-miR-2450c	3	In_seed
rs211587496	bta-mir-2450c	42	NA	chr6	107741128	MI0011504	-	107741169	107741098	Null	0	Null
rs208553417	bta-mir-2450c	38	NA	chr6	107741132	MI0011504	-	107741169	107741098	Null	0	Null
rs136685615	bta-mir-181d	77	NA	chr7	12915314	MI0009754	+	12915238	12915350	Null	0	Null
rs137716256	bta-mir-2455	64	NA	chr7	17935962	MI0011512	-	17936025	17935950	bta-miR-2455	18	In_m
rs208980641	bta-mir-2456	20	NA	chr7	21271950	MI0011515	+	21271931	21272002	Null	0	Null
rs209284124	bta-mir-6120	26	NA	chr7	45882330	MI0021138	+	45882305	45882375	Null	0	Null
rs110808436	bta-mir-874	40	NA	chr7	50687460	MI0009900	-	50687499	50687424	Null	0	Null
rs133532692	bta-mir-1777b	61	NA	chr7	63524541	MI0011520	-	63524601	63524522	bta-miR-1777b	16	In_m
rs133596376	bta-mir-2462	7	NA	chr7	82645316	MI0011522	+	82645310	82645378	Null	0	Null
rs109214042	bta-mir-2284z-7	46	NA	chr7	96924920	MI0022341	-	96924965	96924889	Null	0	Null
rs109804327	bta-mir-2467	36	NA	chr8	1172064	MI0011527	-	1172099	1172021	Null	0	Null
rs109063650	bta-mir-2467	24	NA	chr8	1172076	MI0011527	-	1172099	1172021	bta-miR-2467-5p	15	In_m
rs136484095	bta-mir-2469	46	NA	chr8	11390439	MI0011529	-	11390484	11390418	Null	0	Null
rs133952192	bta-mir-2469	30	NA	chr8	11390455	MI0011529	-	11390484	11390418	Null	0	Null
rs134122212	bta-mir-2404-2	58	NA	chr8	74374402	MI0011535	-	74374459	74374393	Null	0	Null
rs134628189	bta-mir-2404-2	56	NA	chr8	74374404	MI0011535	-	74374459	74374393	Null	0	Null
rs137725146	bta-mir-2404-2	49	NA	chr8	74374411	MI0011535	-	74374459	74374393	Null	0	Null
rs207677665	bta-mir-2284o	47	NA	chr9	25474430	MI0011538	+	25474384	25474444	Null	0	Null
rs134036560	bta-mir-2903	26	NA	chr9	61758655	MI0013079	+	61758630	61758717	bta-miR-2903	9	In_m
rs133063773	bta-mir-2481	56	NA	chr9	95289970	MI0011543	+	95289915	95289978	Null	0	Null
rs134794253	bta-mir-2481	60	NA	chr9	95289974	MI0011543	+	95289915	95289978	Null	0	Null
rs135930835	bta-mir-2484	53	NA	chrX	20461154	MI0011546	-	20461206	20461131	bta-miR-2484	12	In_m
rs210532456	bta-mir-6526-3	19	NA	chrX	28508362	MI0022318	+	28508344	28508422	Null	0	Null
rs134609746	bta-mir-2284e	40	NA	chrX	61016891	MI0011549	-	61016930	61016867	Null	0	Null
rs133587516	bta-mir-764	37	NA	chrX	67800471	MI0010447	+	67800435	67800529	Null	0	Null
rs134343244	bta-mir-1298	95	NA	chrX	67896209	MI0010475	+	67896115	67896222	Null	0	Null
rs207714940	bta-mir-532	80	NA	chrX	92886580	MI0005061	+	92886501	92886586	Null	0	Null
rs134717254	bta-mir-502b	8	NA	chrX	92897959	MI0009854	+	92897952	92898034	Null	0	Null